^E:\PROGRAMMING\C++\CPP_0\CPP_0\READER.CPP
/c /ZI /JMC /nologo /W3 /WX- /diagnostics:column /sdl /Od /D _MBCS /Gm- /EHsc /RTC1 /MDd /GS /fp:precise /permissive- /Zc:wchar_t /Zc:forScope /Zc:inline /Fo"X64\DEBUG\\" /Fd"X64\DEBUG\VC142.PDB" /Gd /TP /FC E:\PROGRAMMING\C++\CPP_0\CPP_0\READER.CPP
^E:\PROGRAMMING\C++\CPP_0\CPP_0\STRINGSPLITTER.CPP
/c /ZI /JMC /nologo /W3 /WX- /diagnostics:column /sdl /Od /D _MBCS /Gm- /EHsc /RTC1 /MDd /GS /fp:precise /permissive- /Zc:wchar_t /Zc:forScope /Zc:inline /Fo"X64\DEBUG\\" /Fd"X64\DEBUG\VC142.PDB" /Gd /TP /FC E:\PROGRAMMING\C++\CPP_0\CPP_0\STRINGSPLITTER.CPP
^E:\PROGRAMMING\C++\CPP_0\CPP_0\WORDSSTAT.CPP
/c /ZI /JMC /nologo /W3 /WX- /diagnostics:column /sdl /Od /D _MBCS /Gm- /EHsc /RTC1 /MDd /GS /fp:precise /permissive- /Zc:wchar_t /Zc:forScope /Zc:inline /Fo"X64\DEBUG\\" /Fd"X64\DEBUG\VC142.PDB" /Gd /TP /FC E:\PROGRAMMING\C++\CPP_0\CPP_0\WORDSSTAT.CPP
^E:\PROGRAMMING\C++\CPP_0\CPP_0\CSVFORMATER.CPP
/c /ZI /JMC /nologo /W3 /WX- /diagnostics:column /sdl /Od /D _MBCS /Gm- /EHsc /RTC1 /MDd /GS /fp:precise /permissive- /Zc:wchar_t /Zc:forScope /Zc:inline /Fo"X64\DEBUG\\" /Fd"X64\DEBUG\VC142.PDB" /Gd /TP /FC E:\PROGRAMMING\C++\CPP_0\CPP_0\CSVFORMATER.CPP
^E:\PROGRAMMING\C++\CPP_0\CPP_0\REPORTER.CPP
/c /ZI /JMC /nologo /W3 /WX- /diagnostics:column /sdl /Od /D _MBCS /Gm- /EHsc /RTC1 /MDd /GS /fp:precise /permissive- /Zc:wchar_t /Zc:forScope /Zc:inline /Fo"X64\DEBUG\\" /Fd"X64\DEBUG\VC142.PDB" /Gd /TP /FC E:\PROGRAMMING\C++\CPP_0\CPP_0\REPORTER.CPP
^E:\PROGRAMMING\C++\CPP_0\CPP_0\CONTROLLER.CPP
/c /ZI /JMC /nologo /W3 /WX- /diagnostics:column /sdl /Od /D _MBCS /Gm- /EHsc /RTC1 /MDd /GS /fp:precise /permissive- /Zc:wchar_t /Zc:forScope /Zc:inline /Fo"X64\DEBUG\\" /Fd"X64\DEBUG\VC142.PDB" /Gd /TP /FC E:\PROGRAMMING\C++\CPP_0\CPP_0\CONTROLLER.CPP
^E:\PROGRAMMING\C++\CPP_0\CPP_0\MAIN.CPP
/c /ZI /JMC /nologo /W3 /WX- /diagnostics:column /sdl /Od /D _MBCS /Gm- /EHsc /RTC1 /MDd /GS /fp:precise /permissive- /Zc:wchar_t /Zc:forScope /Zc:inline /Fo"X64\DEBUG\\" /Fd"X64\DEBUG\VC142.PDB" /Gd /TP /FC E:\PROGRAMMING\C++\CPP_0\CPP_0\MAIN.CPP
