^E:\PROGRAMMING\C++\CPP_0\CPP_0\X64\DEBUG\CONTROLLER.OBJ|E:\PROGRAMMING\C++\CPP_0\CPP_0\X64\DEBUG\CSVFORMATER.OBJ|E:\PROGRAMMING\C++\CPP_0\CPP_0\X64\DEBUG\MAIN.OBJ|E:\PROGRAMMING\C++\CPP_0\CPP_0\X64\DEBUG\READER.OBJ|E:\PROGRAMMING\C++\CPP_0\CPP_0\X64\DEBUG\REPORTER.OBJ|E:\PROGRAMMING\C++\CPP_0\CPP_0\X64\DEBUG\STRINGSPLITTER.OBJ|E:\PROGRAMMING\C++\CPP_0\CPP_0\X64\DEBUG\WORDSSTAT.OBJ
C:\PROGRAM FILES (X86)\WINDOWS KITS\10\LIB\10.0.18362.0\UM\X64\KERNEL32.LIB
C:\PROGRAM FILES (X86)\WINDOWS KITS\10\LIB\10.0.18362.0\UM\X64\USER32.LIB
C:\PROGRAM FILES (X86)\WINDOWS KITS\10\LIB\10.0.18362.0\UM\X64\GDI32.LIB
C:\PROGRAM FILES (X86)\WINDOWS KITS\10\LIB\10.0.18362.0\UM\X64\WINSPOOL.LIB
C:\PROGRAM FILES (X86)\WINDOWS KITS\10\LIB\10.0.18362.0\UM\X64\COMDLG32.LIB
C:\PROGRAM FILES (X86)\WINDOWS KITS\10\LIB\10.0.18362.0\UM\X64\ADVAPI32.LIB
C:\PROGRAM FILES (X86)\WINDOWS KITS\10\LIB\10.0.18362.0\UM\X64\SHELL32.LIB
C:\PROGRAM FILES (X86)\WINDOWS KITS\10\LIB\10.0.18362.0\UM\X64\OLE32.LIB
C:\PROGRAM FILES (X86)\WINDOWS KITS\10\LIB\10.0.18362.0\UM\X64\OLEAUT32.LIB
C:\PROGRAM FILES (X86)\WINDOWS KITS\10\LIB\10.0.18362.0\UM\X64\UUID.LIB
C:\PROGRAM FILES (X86)\WINDOWS KITS\10\LIB\10.0.18362.0\UM\X64\ODBC32.LIB
C:\PROGRAM FILES (X86)\WINDOWS KITS\10\LIB\10.0.18362.0\UM\X64\ODBCCP32.LIB
E:\PROGRAMMING\C++\CPP_0\CPP_0\X64\DEBUG\CONTROLLER.OBJ
E:\PROGRAMMING\C++\CPP_0\CPP_0\X64\DEBUG\CSVFORMATER.OBJ
E:\PROGRAMMING\C++\CPP_0\CPP_0\X64\DEBUG\MAIN.OBJ
E:\PROGRAMMING\C++\CPP_0\CPP_0\X64\DEBUG\READER.OBJ
E:\PROGRAMMING\C++\CPP_0\CPP_0\X64\DEBUG\REPORTER.OBJ
E:\PROGRAMMING\C++\CPP_0\CPP_0\X64\DEBUG\STRINGSPLITTER.OBJ
E:\PROGRAMMING\C++\CPP_0\CPP_0\X64\DEBUG\WORDSSTAT.OBJ
C:\WINDOWS\SYSTEM32\TZRES.DLL
C:\WINDOWS\GLOBALIZATION\SORTING\SORTDEFAULT.NLS
C:\PROGRAM FILES (X86)\MICROSOFT VISUAL STUDIO\2019\COMMUNITY\VC\TOOLS\MSVC\14.23.28105\LIB\X64\MSVCPRTD.LIB
C:\PROGRAM FILES (X86)\MICROSOFT VISUAL STUDIO\2019\COMMUNITY\VC\TOOLS\MSVC\14.23.28105\LIB\X64\MSVCRTD.LIB
C:\PROGRAM FILES (X86)\MICROSOFT VISUAL STUDIO\2019\COMMUNITY\VC\TOOLS\MSVC\14.23.28105\LIB\X64\OLDNAMES.LIB
C:\PROGRAM FILES (X86)\MICROSOFT VISUAL STUDIO\2019\COMMUNITY\VC\TOOLS\MSVC\14.23.28105\LIB\X64\VCRUNTIMED.LIB
C:\PROGRAM FILES (X86)\WINDOWS KITS\10\LIB\10.0.18362.0\UCRT\X64\UCRTD.LIB
