^E:\PROGRAMMING\C++\CPP_0\CPP_0\X64\DEBUG\CONTROLLER.OBJ|E:\PROGRAMMING\C++\CPP_0\CPP_0\X64\DEBUG\CSVFORMATER.OBJ|E:\PROGRAMMING\C++\CPP_0\CPP_0\X64\DEBUG\MAIN.OBJ|E:\PROGRAMMING\C++\CPP_0\CPP_0\X64\DEBUG\READER.OBJ|E:\PROGRAMMING\C++\CPP_0\CPP_0\X64\DEBUG\REPORTER.OBJ|E:\PROGRAMMING\C++\CPP_0\CPP_0\X64\DEBUG\STRINGSPLITTER.OBJ|E:\PROGRAMMING\C++\CPP_0\CPP_0\X64\DEBUG\WORDSSTAT.OBJ
/OUT:"E:\PROGRAMMING\C++\CPP_0\CPP_0\X64\DEBUG\CPP_0.EXE" /INCREMENTAL /NOLOGO KERNEL32.LIB USER32.LIB GDI32.LIB WINSPOOL.LIB COMDLG32.LIB ADVAPI32.LIB SHELL32.LIB OLE32.LIB OLEAUT32.LIB UUID.LIB ODBC32.LIB ODBCCP32.LIB /MANIFEST /MANIFESTUAC:"level='asInvoker' uiAccess='false'" /manifest:embed /DEBUG:FASTLINK /PDB:"E:\PROGRAMMING\C++\CPP_0\CPP_0\X64\DEBUG\CPP_0.PDB" /SUBSYSTEM:CONSOLE /TLBID:1 /DYNAMICBASE /NXCOMPAT /IMPLIB:"E:\PROGRAMMING\C++\CPP_0\CPP_0\X64\DEBUG\CPP_0.LIB" /MACHINE:X64 X64\DEBUG\CONTROLLER.OBJ
X64\DEBUG\CSVFORMATER.OBJ
X64\DEBUG\MAIN.OBJ
X64\DEBUG\READER.OBJ
X64\DEBUG\REPORTER.OBJ
X64\DEBUG\STRINGSPLITTER.OBJ
X64\DEBUG\WORDSSTAT.OBJ
